…
### Sample preparation

The genome SNP variants are sampled from the previously identified 4000 highly and 
consistently expressed genes. the result, for one sample, looks like so:

```
> snp_df
# A tibble: 840 × 2
   chr         bp
   <chr>    <int>
 1 12.0  12500010
 2 12.0  12500075
 3 12.0  12500375
 4 12.0  12500383
 5 12.0  12500396
 6 12.0  12500480
 7 12.0  12500556
 8 12.0  12500807
 9 12.0  12500824
10 12.0  12500914
# … with 830 more rows
```
…
