…
### Sample Preparation

The genome SNP variants are sampled from 4000 highly and consistently expressed gene ranges. 
To reduce the time for each distance calculation, rather than using all 4000 regions to extract 
SNP vectors, I created 4 samples of 1,900 gene ranges drawn from the 4,000 genes. 
I then intersected those samples with the genome SNP database. The result of this is a list of SNPS 
which occur in the sampled regions in the individual genomes. For sample1, for example, there are 840 high 
confidence SNPS. 

```
> snp_df
# A tibble: 840 × 2
   chr         bp
   <chr>    <int>
 1 12.0  12500010
 2 12.0  12500075
 3 12.0  12500375
 4 12.0  12500383
 5 12.0  12500396
 6 12.0  12500480
 7 12.0  12500556
 8 12.0  12500807
 9 12.0  12500824
10 12.0  12500914
# … with 830 more rows
```
…
